%!PS-Adobe-3.0 EPSF-3.0
%%Creator: MATLAB, The MathWorks, Inc. Version 8.2.0.701 (R2013b). Operating System: Linux 2.6.32-279.el6.x86_64 #1 SMP Fri Jun 22 12:19:21 UTC 2012 x86_64.
%%Title: ./zeroshotsketchimagecrossmodalset2bench.eps
%%CreationDate: 04/01/2016  20:08:48
%%DocumentNeededFonts: Helvetica
%%DocumentProcessColors: Cyan Magenta Yellow Black
%%LanguageLevel: 2
%%Pages: 1
%%BoundingBox:    55   197   546   604
%%EndComments

%%BeginProlog
% MathWorks dictionary
/MathWorks 160 dict begin
% definition operators
/bdef {bind def} bind def
/ldef {load def} bind def
/xdef {exch def} bdef
/xstore {exch store} bdef
% operator abbreviations
/c  /clip ldef
/cc /concat ldef
/cp /closepath ldef
/gr /grestore ldef
/gs /gsave ldef
/mt /moveto ldef
/np /newpath ldef
/cm /currentmatrix ldef
/sm /setmatrix ldef
/rm /rmoveto ldef
/rl /rlineto ldef
/s {show newpath} bdef
/sc {setcmykcolor} bdef
/sr /setrgbcolor ldef
/sg /setgray ldef
/w /setlinewidth ldef
/j /setlinejoin ldef
/cap /setlinecap ldef
/rc {rectclip} bdef
/rf {rectfill} bdef
% page state control
/pgsv () def
/bpage {/pgsv save def} bdef
/epage {pgsv restore} bdef
/bplot /gsave ldef
/eplot {stroke grestore} bdef
% orientation switch
/portraitMode 0 def /landscapeMode 1 def /rotateMode 2 def
% coordinate system mappings
/dpi2point 0 def
% font control
/FontSize 0 def
/FMS {/FontSize xstore findfont [FontSize 0 0 FontSize neg 0 0]
  makefont setfont} bdef
/reencode {exch dup where {pop load} {pop StandardEncoding} ifelse
  exch dup 3 1 roll findfont dup length dict begin
  { 1 index /FID ne {def}{pop pop} ifelse } forall
  /Encoding exch def currentdict end definefont pop} bdef
/isroman {findfont /CharStrings get /Agrave known} bdef
/FMSR {3 1 roll 1 index dup isroman {reencode} {pop pop} ifelse
  exch FMS} bdef
/csm {1 dpi2point div -1 dpi2point div scale neg translate
 dup landscapeMode eq {pop -90 rotate}
  {rotateMode eq {90 rotate} if} ifelse} bdef
% line types: solid, dotted, dashed, dotdash
/SO { [] 0 setdash } bdef
/DO { [.5 dpi2point mul 4 dpi2point mul] 0 setdash } bdef
/DA { [6 dpi2point mul] 0 setdash } bdef
/DD { [.5 dpi2point mul 4 dpi2point mul 6 dpi2point mul 4
  dpi2point mul] 0 setdash } bdef
% macros for lines and objects
/L {lineto stroke} bdef
/MP {3 1 roll moveto 1 sub {rlineto} repeat} bdef
/AP {{rlineto} repeat} bdef
/PDlw -1 def
/W {/PDlw currentlinewidth def setlinewidth} def
/PP {closepath eofill} bdef
/DP {closepath stroke} bdef
/MR {4 -2 roll moveto dup  0 exch rlineto exch 0 rlineto
  neg 0 exch rlineto closepath} bdef
/FR {MR stroke} bdef
/PR {MR fill} bdef
/L1i {{currentfile picstr readhexstring pop} image} bdef
/tMatrix matrix def
/MakeOval {newpath tMatrix currentmatrix pop translate scale
0 0 1 0 360 arc tMatrix setmatrix} bdef
/FO {MakeOval stroke} bdef
/PO {MakeOval fill} bdef
/PD {currentlinewidth 2 div 0 360 arc fill
   PDlw -1 eq not {PDlw w /PDlw -1 def} if} def
/FA {newpath tMatrix currentmatrix pop translate scale
  0 0 1 5 -2 roll arc tMatrix setmatrix stroke} bdef
/PA {newpath tMatrix currentmatrix pop	translate 0 0 moveto scale
  0 0 1 5 -2 roll arc closepath tMatrix setmatrix fill} bdef
/FAn {newpath tMatrix currentmatrix pop translate scale
  0 0 1 5 -2 roll arcn tMatrix setmatrix stroke} bdef
/PAn {newpath tMatrix currentmatrix pop translate 0 0 moveto scale
  0 0 1 5 -2 roll arcn closepath tMatrix setmatrix fill} bdef
/vradius 0 def /hradius 0 def /lry 0 def
/lrx 0 def /uly 0 def /ulx 0 def /rad 0 def
/MRR {/vradius xdef /hradius xdef /lry xdef /lrx xdef /uly xdef
  /ulx xdef newpath tMatrix currentmatrix pop ulx hradius add uly
  vradius add translate hradius vradius scale 0 0 1 180 270 arc 
  tMatrix setmatrix lrx hradius sub uly vradius add translate
  hradius vradius scale 0 0 1 270 360 arc tMatrix setmatrix
  lrx hradius sub lry vradius sub translate hradius vradius scale
  0 0 1 0 90 arc tMatrix setmatrix ulx hradius add lry vradius sub
  translate hradius vradius scale 0 0 1 90 180 arc tMatrix setmatrix
  closepath} bdef
/FRR {MRR stroke } bdef
/PRR {MRR fill } bdef
/MlrRR {/lry xdef /lrx xdef /uly xdef /ulx xdef /rad lry uly sub 2 div def
  newpath tMatrix currentmatrix pop ulx rad add uly rad add translate
  rad rad scale 0 0 1 90 270 arc tMatrix setmatrix lrx rad sub lry rad
  sub translate rad rad scale 0 0 1 270 90 arc tMatrix setmatrix
  closepath} bdef
/FlrRR {MlrRR stroke } bdef
/PlrRR {MlrRR fill } bdef
/MtbRR {/lry xdef /lrx xdef /uly xdef /ulx xdef /rad lrx ulx sub 2 div def
  newpath tMatrix currentmatrix pop ulx rad add uly rad add translate
  rad rad scale 0 0 1 180 360 arc tMatrix setmatrix lrx rad sub lry rad
  sub translate rad rad scale 0 0 1 0 180 arc tMatrix setmatrix
  closepath} bdef
/FtbRR {MtbRR stroke } bdef
/PtbRR {MtbRR fill } bdef
/stri 6 array def /dtri 6 array def
/smat 6 array def /dmat 6 array def
/tmat1 6 array def /tmat2 6 array def /dif 3 array def
/asub {/ind2 exch def /ind1 exch def dup dup
  ind1 get exch ind2 get sub exch } bdef
/tri_to_matrix {
  2 0 asub 3 1 asub 4 0 asub 5 1 asub
  dup 0 get exch 1 get 7 -1 roll astore } bdef
/compute_transform {
  dmat dtri tri_to_matrix tmat1 invertmatrix 
  smat stri tri_to_matrix tmat2 concatmatrix } bdef
/ds {stri astore pop} bdef
/dt {dtri astore pop} bdef
/db {2 copy /cols xdef /rows xdef mul dup 3 mul string
  currentfile 
  3 index 0 eq {/ASCIIHexDecode filter}
  {/ASCII85Decode filter 3 index 2 eq {/RunLengthDecode filter} if }
  ifelse exch readstring pop
  dup 0 3 index getinterval /rbmap xdef
  dup 2 index dup getinterval /gbmap xdef
  1 index dup 2 mul exch getinterval /bbmap xdef pop pop}bdef
/it {gs np dtri aload pop moveto lineto lineto cp c
  cols rows 8 compute_transform 
  rbmap gbmap bbmap true 3 colorimage gr}bdef
/il {newpath moveto lineto stroke}bdef
currentdict end def
%%EndProlog

%%BeginSetup
MathWorks begin

0 cap

end
%%EndSetup

%%Page: 1 1
%%BeginPageSetup
%%PageBoundingBox:    55   197   546   604
MathWorks begin
bpage
%%EndPageSetup

%%BeginObject: obj1
bplot

/dpi2point 4.16667 def
portraitMode 0075 2550 csm

  156    33  2047  1696 rc
86 dict begin %Colortable dictionary
/c0 { 0.000000 0.000000 0.000000 sr} bdef
/c1 { 1.000000 1.000000 1.000000 sr} bdef
/c2 { 0.900000 0.000000 0.000000 sr} bdef
/c3 { 0.000000 0.820000 0.000000 sr} bdef
/c4 { 0.000000 0.000000 0.800000 sr} bdef
/c5 { 0.910000 0.820000 0.320000 sr} bdef
/c6 { 1.000000 0.260000 0.820000 sr} bdef
/c7 { 0.000000 0.820000 0.820000 sr} bdef
c0
1 j
1 sg
   0    0 2401 1802 rf
2.08333 w
0 1468 1860 0 0 -1468 312 1603 4 MP
PP
-1860 0 0 1468 1860 0 0 -1468 312 1603 5 MP stroke
1.38889 w
DO
SO
2.08333 w
0 sg
 312 1603 mt 2172 1603 L
 312  135 mt 2172  135 L
 312 1603 mt  312  135 L
2172 1603 mt 2172  135 L
 312 1603 mt 2172 1603 L
 312 1603 mt  312  135 L
 312 1603 mt  312 1584 L
 312  135 mt  312  153 L
%%IncludeResource: font Helvetica
/Helvetica /ISOLatin1Encoding 45.8333 FMSR

 300 1657 mt 
(0) s
 498 1603 mt  498 1584 L
 498  135 mt  498  153 L
 467 1657 mt 
(0.1) s
 684 1603 mt  684 1584 L
 684  135 mt  684  153 L
 653 1657 mt 
(0.2) s
 870 1603 mt  870 1584 L
 870  135 mt  870  153 L
 839 1657 mt 
(0.3) s
1056 1603 mt 1056 1584 L
1056  135 mt 1056  153 L
1025 1657 mt 
(0.4) s
1242 1603 mt 1242 1584 L
1242  135 mt 1242  153 L
1211 1657 mt 
(0.5) s
1428 1603 mt 1428 1584 L
1428  135 mt 1428  153 L
1397 1657 mt 
(0.6) s
1614 1603 mt 1614 1584 L
1614  135 mt 1614  153 L
1583 1657 mt 
(0.7) s
1800 1603 mt 1800 1584 L
1800  135 mt 1800  153 L
1769 1657 mt 
(0.8) s
1986 1603 mt 1986 1584 L
1986  135 mt 1986  153 L
1955 1657 mt 
(0.9) s
2172 1603 mt 2172 1584 L
2172  135 mt 2172  153 L
2160 1657 mt 
(1) s
 312 1603 mt  330 1603 L
2172 1603 mt 2153 1603 L
 275 1619 mt 
(0) s
 312 1456 mt  330 1456 L
2172 1456 mt 2153 1456 L
 237 1472 mt 
(0.1) s
 312 1309 mt  330 1309 L
2172 1309 mt 2153 1309 L
 237 1325 mt 
(0.2) s
 312 1162 mt  330 1162 L
2172 1162 mt 2153 1162 L
 237 1178 mt 
(0.3) s
 312 1015 mt  330 1015 L
2172 1015 mt 2153 1015 L
 237 1031 mt 
(0.4) s
 312  869 mt  330  869 L
2172  869 mt 2153  869 L
 237  885 mt 
(0.5) s
 312  722 mt  330  722 L
2172  722 mt 2153  722 L
 237  738 mt 
(0.6) s
 312  575 mt  330  575 L
2172  575 mt 2153  575 L
 237  591 mt 
(0.7) s
 312  428 mt  330  428 L
2172  428 mt 2153  428 L
 237  444 mt 
(0.8) s
 312  281 mt  330  281 L
2172  281 mt 2153  281 L
 237  297 mt 
(0.9) s
 312  135 mt  330  135 L
2172  135 mt 2153  135 L
 275  151 mt 
(1) s
 312 1603 mt 2172 1603 L
 312  135 mt 2172  135 L
 312 1603 mt  312  135 L
2172 1603 mt 2172  135 L
gs 312 135 1861 1469 rc
/c8 { 1.000000 0.000000 0.000000 sr} bdef
c8
2 0 1 0 1 0 1 1 1 0 1 0 1 0 1 0 
1 1 1 0 1 0 1 0 1 0 1 1 1 0 1 0 
1 0 1 0 1 0 1 1 1 0 1 0 1 0 1 0 
1 1 1 0 1 0 1 0 1 0 1 0 1 1 1 0 
1 0 1 0 1 0 1 0 1 1 1 0 1 0 2 0 
1 0 1 0 1 0 1 1 1 0 1 0 1 0 1 0 
1 0 1 0 1 0 1 1 1 0 1 0 1 0 1 0 
1 0 1 0 1 0 -1 0 3 1 1 0 2 0 1 0 
1 0 1 1 1 0 1 0 1 0 1 0 2 0 1 1 
1 0 2 0 2 0 1 0 1 0 2 1 1 0 1 0 
1 0 2 0 1 0 1 0 1 0 1 1 1 0 2 0 
1 0 1 0 1 0 1 0 1 1 1 0 1 0 1 0 
2 0 1 0 1 0 1 0 2 1 1 0 2 0 1 0 
1 0 2 0 1 0 2 0 1 1 1 0 1 0 1 0 
1 0 2 1 1 0 2 0 1 0 1 0 1 0 2 0 
2 0 1 1 1 0 1 0 2 0 1 0 1 1 1 0 
1 0 1 0 1 0 2 0 1 0 1 1 1 0 1 0 
2 0 1 0 2 0 1 1 2 0 2 0 1 0 2 0 
1 0 1 0 1 1 1 0 2 0 2 0 1 0 1 1 
1 0 2 0 1 0 2 0 2 0 1 1 1 0 1 0 
2 0 2 0 1 1 1 0 2 0 1 0 1 0 1 1 
2 0 1 0 2 0 1 0 2 0 0 1 2 0 1 0 
2 0 1 0 1 1 2 0 1 0 2 0 1 1 1 0 
2 0 2 0 2 1 2 0 1 0 1 0 2 0 1 1 
1 0 2 0 2 0 2 0 1 1 2 0 1 0 2 0 
1 0 2 1 2 0 2 0 1 0 2 0 1 1 1 0 
2 0 2 0 2 0 1 1 1 0 1 0 2 0 2 1 
2 0 1 0 1 0 1 0 2 1 1 0 1 0 1 1 
1 0 2 0 1 0 2 0 2 1 1 0 1 0 1 1 
2 0 2 0 1 0 2 1 1 0 2 0 2 0 1 1 
2 0 1 0 3 0 1 1 2 0 2 0 1 0 2 1 
3 0 2 0 1 0 2 1 1 0 1 0 2 1 2 0 
2 0 2 0 1 1 2 0 2 0 2 1 2 0 2 0 
2 0 2 1 2 0 2 0 2 0 2 1 2 0 2 0 
2 1 2 0 2 0 2 1 2 0 2 0 3 0 1 1 
3 0 1 0 3 1 1 0 3 0 3 1 3 0 2 0 
1 1 2 0 2 0 1 1 2 0 1 0 3 1 1 0 
2 1 2 0 1 0 1752 1476 300 MP stroke
2 1 3 0 1 0 2 1 3 0 2 1 1 0 3 0 
1 1 2 0 3 1 2 0 2 0 3 1 3 0 2 0 
2 1 2 0 2 1 2 0 2 1 3 0 2 0 2 1 
3 0 1 1 3 0 1 1 3 0 2 1 2 0 4 0 
2 1 1 0 2 1 2 0 1 1 2 1 4 0 2 0 
2 1 2 1 2 0 3 1 2 0 3 1 2 0 3 1 
3 0 3 0 2 1 2 1 2 0 4 1 2 0 3 1 
2 0 2 1 5 0 1 1 3 1 2 0 3 1 2 1 
3 0 3 1 2 0 4 1 2 1 3 0 3 1 2 1 
3 0 3 1 2 1 3 0 3 1 3 1 1 1 2 0 
3 1 4 1 3 0 3 1 3 1 3 1 4 0 3 1 
2 1 4 1 3 0 4 1 2 1 2 1 4 1 3 1 
3 0 2 1 3 1 3 1 3 1 3 1 2 1 2 1 
2 1 4 1 4 1 4 1 3 1 3 1 3 1 3 1 
4 1 3 1 2 2 4 1 3 1 4 1 5 1 3 1 
3 1 3 2 3 1 3 1 3 2 5 1 3 1 5 1 
5 1 3 2 5 1 4 1 3 2 4 1 3 2 6 1 
4 1 6 2 4 1 3 2 5 1 4 2 4 2 3 1 
5 2 5 2 4 1 4 2 5 2 4 2 6 2 5 1 
4 2 5 2 8 2 5 2 3 2 5 3 5 2 5 2 
6 2 6 2 5 2 6 3 6 2 5 2 5 3 5 3 
5 3 6 3 7 2 5 3 7 3 6 3 7 2 5 4 
7 3 6 3 7 4 5 4 6 4 7 3 6 4 7 4 
7 5 7 4 7 4 8 4 6 6 8 4 6 6 8 5 
6 7 6 6 8 6 7 7 9 6 8 7 8 8 7 8 
9 8 10 8 8 9 10 9 10 9 11 9 13 8 13 10 
12 10 12 12 16 9 14 11 16 11 16 12 15 14 18 13 
19 12 21 13 19 15 20 18 24 14 24 15 25 18 25 19 
27 22 30 18 30 24 32 23 34 26 36 36 41 14 41 30 
356 691 233 MP stroke
DA
/c9 { 1.000000 0.000000 1.000000 sr} bdef
c9
1 0 1 1 1 0 2 0 1 0 1 0 1 0 1 0 
2 0 2 0 1 0 1 0 1 1 1 0 1 0 1 0 
2 0 1 0 2 0 2 0 1 0 1 1 1 0 1 0 
1 0 1 0 1 0 1 0 1 0 2 0 1 0 1 1 
1 0 1 0 1 0 2 0 1 0 1 0 1 0 2 0 
2 0 2 0 1 0 1 0 1 1 2 0 1 0 1 0 
1 0 2 0 1 0 1 0 2 0 1 0 1 0 2 1 
1 0 1 0 2 0 1 0 2 0 1 0 2 0 1 0 
1 0 1 0 1 1 2 0 1 0 3 0 1 0 3 0 
1 0 2 0 1 0 1 0 2 0 2 0 1 0 1 1 
1 0 2 0 1 0 1 0 2 0 1 0 1 0 3 0 
2 0 1 1 1 0 3 0 1 0 2 0 2 0 1 0 
2 0 1 0 2 0 2 0 2 0 2 1 1 0 1 0 
2 0 1 0 2 0 1 0 2 0 1 0 2 0 1 1 
2 0 2 0 3 0 1 0 2 0 1 0 1 0 3 0 
1 0 1 0 1 1 2 0 2 0 1 0 1 0 2 0 
1 0 2 0 1 0 2 1 1 0 2 0 3 0 2 0 
2 0 2 0 2 0 2 0 2 0 2 0 1 1 2 0 
2 0 1 0 1 0 2 0 2 0 1 0 2 1 2 0 
2 0 1 0 2 0 2 0 1 0 2 0 2 0 1 1 
2 0 2 0 1 0 2 0 2 0 2 0 1 0 2 0 
3 1 2 0 1 0 2 0 2 0 2 0 1 0 2 0 
2 0 2 1 2 0 1 0 2 0 2 0 1 0 2 0 
1 1 2 0 2 0 2 0 2 0 1 0 2 0 2 0 
2 1 2 0 2 0 2 0 2 0 2 0 3 0 2 0 
1 1 1 0 2 0 1 0 2 0 1 0 2 0 2 1 
3 0 3 0 1 0 2 0 1 0 2 0 2 1 2 0 
2 0 2 0 2 0 2 0 1 0 1 1 2 0 2 0 
2 0 1 0 2 0 2 1 3 0 1 0 2 0 3 0 
1 0 2 1 1 0 2 0 2 0 2 0 1 0 1 1 
2 0 2 0 2 0 2 1 2 0 4 0 1 0 3 0 
2 0 2 0 2 1 1 0 3 0 1 0 3 0 1 1 
2 0 3 0 1 0 2 0 1 1 2 0 2 0 3 0 
3 0 3 0 2 0 2 1 2 0 1 0 2 0 1 1 
2 0 2 0 1 0 3 0 1 1 3 0 2 0 2 0 
3 0 1 1 2 0 2 0 1 0 3 0 3 1 1 0 
2 0 2 0 1 1 3 0 2 0 2 0 2 0 2 1 
2 0 2 0 2 0 1672 1498 300 MP stroke
3 1 3 0 2 0 2 0 2 1 2 0 2 0 2 0 
3 0 2 1 4 0 1 0 3 0 3 0 3 1 1 0 
3 0 1 1 2 0 3 0 2 0 3 1 3 0 2 0 
4 0 2 0 2 1 3 0 3 0 3 0 3 1 1 0 
2 0 2 1 2 0 3 0 3 0 1 1 3 0 3 0 
4 0 2 1 2 0 2 0 3 1 2 0 1 0 3 1 
2 0 3 0 3 1 2 0 2 0 2 1 3 0 3 0 
2 1 3 0 3 0 4 0 3 1 2 0 3 0 2 1 
3 0 4 0 2 1 3 0 2 0 4 1 3 0 2 0 
3 1 2 0 4 0 3 1 4 0 3 0 3 1 3 0 
4 0 2 1 4 0 3 0 3 1 3 0 3 0 2 1 
3 0 4 1 3 0 3 0 3 1 5 0 4 0 3 1 
2 0 4 0 3 1 3 0 3 1 4 0 3 1 3 0 
4 0 3 1 4 0 2 1 4 0 2 1 3 0 5 0 
4 1 4 0 3 1 4 0 4 1 3 0 4 0 5 1 
3 0 3 1 3 1 3 0 3 1 4 0 3 1 3 0 
3 1 3 1 5 0 3 1 2 0 3 1 4 1 4 0 
5 1 4 0 5 1 4 0 4 1 5 0 3 1 4 1 
3 0 4 1 3 1 4 0 5 1 4 1 3 0 4 1 
4 1 4 1 3 0 4 1 3 1 5 1 6 0 4 1 
5 1 4 1 4 0 5 1 5 1 4 1 5 0 6 1 
6 0 5 1 5 1 5 1 5 0 4 2 4 1 4 1 
6 0 5 1 5 1 5 1 4 1 4 1 5 2 4 1 
4 1 7 1 8 0 4 1 5 2 6 1 6 1 5 1 
4 1 5 2 7 1 5 1 5 1 5 2 6 1 7 1 
4 2 6 1 4 2 5 2 6 2 6 1 5 2 5 2 
5 2 5 2 7 2 6 2 5 2 6 2 6 2 6 3 
7 2 7 2 6 2 6 3 6 2 8 2 8 2 8 3 
7 2 6 4 7 3 9 2 5 4 7 4 8 3 6 5 
8 4 8 3 9 4 7 5 7 5 7 6 9 4 7 7 
9 5 9 6 9 7 9 7 8 8 11 7 10 8 12 8 
11 8 10 11 11 11 13 11 13 12 14 11 13 16 14 17 
15 19 17 19 18 19 19 23 22 23 24 22 23 42 27 44 
31 51 347 866 266 MP stroke
DD
0 sg
2 0 1 1 1 0 1 0 1 0 1 0 1 0 1 1 
1 0 1 0 1 0 1 1 1 0 1 0 1 0 1 0 
1 0 1 0 1 1 1 0 1 0 1 0 1 0 1 0 
1 1 1 0 1 0 1 0 1 0 1 0 1 0 1 0 
1 1 2 0 1 0 1 0 1 0 1 1 1 0 1 0 
1 0 1 0 1 0 1 1 1 0 1 0 1 0 1 0 
2 0 1 0 1 1 1 0 2 0 2 0 1 0 1 0 
1 1 1 0 1 0 1 0 1 0 2 0 1 0 1 1 
1 0 1 0 1 1 1 0 2 0 2 0 1 0 1 0 
1 1 1 0 1 0 1 0 1 0 1 0 1 0 1 0 
1 1 1 0 1 0 1 0 1 0 1 0 1 0 1 1 
1 0 2 0 1 0 1 0 1 0 1 0 1 0 1 1 
1 0 1 0 1 0 2 0 1 0 1 0 -1 0 3 1 
1 0 1 0 1 0 1 0 2 0 1 0 1 1 1 0 
2 0 1 0 1 0 1 0 1 1 1 0 1 0 1 0 
1 0 1 0 2 0 1 1 1 0 2 0 1 0 1 0 
1 0 3 1 1 0 1 0 2 0 1 0 1 0 1 1 
1 0 1 0 2 0 1 0 1 1 2 0 1 0 1 0 
1 0 1 0 1 1 2 0 1 0 1 0 1 0 2 0 
1 1 1 0 1 0 2 0 1 1 2 0 1 0 1 0 
2 0 1 1 1 0 1 0 2 0 2 1 1 0 2 0 
1 0 1 0 2 0 1 1 1 0 1 0 1 0 2 0 
1 1 1 0 2 0 1 0 2 0 2 1 1 0 1 0 
2 0 1 0 2 1 1 0 2 0 2 0 1 0 2 1 
2 0 1 0 1 0 2 0 2 1 1 0 2 0 2 0 
1 0 2 1 2 0 1 0 2 0 2 0 1 1 2 0 
1 0 2 0 2 0 1 1 1 0 1 0 2 0 1 1 
2 0 1 0 2 0 2 1 2 0 1 0 2 0 1 1 
2 0 1 0 2 0 2 0 1 1 2 0 2 0 2 0 
2 1 1 0 2 0 2 0 2 1 1 0 2 0 2 0 
1 1 3 0 1 0 2 0 2 1 1 0 1 0 2 1 
2 0 1 0 2 0 1 1 2 0 2 0 3 1 1 0 
2 0 2 0 2 1 2 0 2 0 3 0 1 1 1 0 
2 0 2 1 2 0 3 0 2 1 2 0 1 0 2 0 
3 1 2 0 2 0 1 1 2 0 1 0 2 1 2 0 
2 0 2 1 2 0 2 0 2 1 2 0 2 0 2 1 
2 0 1 0 3 1 1 0 2 1 2 0 2 0 2 1 
1 0 3 0 1 1 1756 1474 300 MP stroke
2 0 2 1 2 0 2 0 2 1 2 0 3 0 2 1 
2 0 2 1 2 0 2 0 2 1 3 0 2 1 2 0 
2 1 3 0 3 0 2 1 3 0 2 1 2 0 3 0 
2 1 3 0 3 1 2 0 3 0 3 1 3 0 4 1 
2 0 3 0 2 1 2 0 2 1 2 1 3 0 2 1 
2 0 2 1 3 0 1 1 2 0 3 1 2 0 3 1 
2 0 3 1 2 1 3 0 4 0 4 1 3 0 2 1 
3 1 2 0 2 1 2 0 3 1 2 1 3 0 4 1 
2 0 2 1 3 1 4 0 2 1 4 0 3 1 2 1 
3 0 4 1 3 1 3 0 3 1 3 1 3 0 2 1 
4 1 3 1 4 0 3 1 3 1 3 0 3 1 3 1 
4 1 4 0 2 1 3 1 4 1 4 0 4 1 2 1 
4 1 4 1 3 0 3 1 5 1 3 1 3 1 5 1 
3 1 4 1 3 1 3 1 4 1 3 1 4 1 4 0 
4 1 4 1 3 1 4 2 5 0 4 1 4 1 3 2 
4 1 2 1 3 2 2 1 4 1 4 2 3 1 2 2 
4 1 5 1 4 2 3 1 3 2 4 1 3 2 3 1 
5 2 4 1 4 2 3 2 5 1 3 2 5 2 3 2 
4 2 4 1 5 2 5 2 3 2 5 2 5 2 3 2 
5 2 5 2 4 3 5 2 4 2 6 2 5 2 5 3 
5 2 7 2 3 3 5 3 7 2 5 3 7 2 6 3 
5 2 7 3 7 3 5 3 7 3 6 3 6 3 6 4 
6 3 6 4 6 4 5 4 6 4 7 4 7 4 7 5 
6 5 8 4 6 5 7 5 8 5 6 6 7 6 8 6 
8 6 10 4 9 7 8 7 10 6 9 7 10 7 10 8 
10 7 9 9 12 8 11 9 11 9 14 9 12 9 13 11 
15 10 16 9 14 12 17 10 17 12 18 11 17 15 18 15 
21 11 20 16 23 15 23 16 24 16 28 14 26 18 28 20 
31 18 31 20 33 24 37 15 36 34 40 28 354 730 231 MP stroke
DO
/c10 { 0.000000 0.000000 1.000000 sr} bdef
c10
1 0 2 0 1 0 1 1 1 0 1 0 2 0 1 0 
1 0 1 0 1 0 1 0 1 0 1 0 1 1 1 0 
1 0 1 0 1 0 2 0 1 0 1 0 1 0 1 1 
2 0 2 0 1 0 1 0 2 0 1 0 1 0 1 0 
2 0 1 0 1 0 1 0 1 1 2 0 2 0 1 0 
1 0 2 0 1 0 1 0 1 0 1 0 2 0 2 0 
2 0 1 1 1 0 1 0 1 0 1 0 2 0 1 0 
1 0 2 0 1 0 1 0 2 1 2 0 1 0 1 0 
1 0 2 0 1 0 2 0 2 0 2 0 1 0 1 0 
2 1 2 0 1 0 3 0 1 0 1 0 3 0 1 0 
1 0 2 0 1 0 2 0 2 0 2 1 2 0 2 0 
2 0 1 0 2 0 2 0 2 0 2 0 2 0 2 0 
2 0 2 0 0 1 3 0 2 0 2 0 1 0 2 0 
2 0 2 0 2 0 1 0 2 0 1 1 3 0 1 0 
1 0 2 0 1 0 2 0 1 0 2 0 1 0 2 1 
1 0 2 0 1 0 2 0 1 0 2 0 1 0 2 0 
2 1 1 0 2 0 2 0 2 0 2 0 1 0 1 0 
2 0 2 1 2 0 2 0 1 0 2 0 1 0 1 0 
2 0 1 0 2 1 2 0 1 0 1 0 2 0 2 0 
1 0 2 0 1 0 1 1 2 0 2 0 2 0 1 0 
1 0 3 0 1 0 2 1 2 0 2 0 1 0 2 0 
2 0 2 0 2 0 2 1 2 0 2 0 2 0 2 0 
3 0 1 0 1 0 2 1 1 0 3 0 1 0 2 0 
2 0 1 0 2 0 2 1 1 0 3 0 2 0 1 0 
2 0 2 0 2 0 1 1 2 0 2 0 2 0 2 0 
2 0 2 0 1 0 2 1 1 0 2 0 2 0 2 0 
2 0 2 0 1 1 2 0 3 0 2 0 2 0 2 0 
2 0 2 1 2 0 2 0 2 0 2 0 2 0 2 0 
2 1 3 0 2 0 2 0 1 0 2 0 2 0 2 1 
2 0 2 0 2 0 1 0 2 0 1 1 1 0 2 0 
3 0 1 0 2 0 3 1 2 0 2 0 2 0 2 0 
3 0 1 0 3 1 1 0 3 0 2 0 2 0 2 0 
1 1 2 0 2 0 2 0 2 0 3 1 2 0 2 0 
1 0 2 0 2 0 3 1 2 0 2 0 3 0 3 0 
2 0 3 1 3 0 3 0 2 0 2 0 2 0 2 1 
3 0 1 0 1 0 1 1 3 0 2 0 3 0 4 0 
2 0 2 1 2 0 1 0 2 0 3 0 2 1 3 0 
3 0 2 0 3 0 1655 1500 300 MP stroke
3 1 2 0 2 0 3 0 2 0 2 1 2 0 2 0 
2 0 2 1 2 0 2 0 2 0 2 1 3 0 1 0 
2 0 3 1 2 0 2 0 2 0 3 1 2 0 3 0 
2 0 2 1 3 0 3 0 2 0 3 0 2 1 4 0 
2 0 3 0 1 1 3 0 3 0 3 0 3 1 2 0 
3 0 3 0 4 1 2 0 2 0 3 0 2 1 3 0 
2 0 2 1 3 0 3 0 2 0 3 1 2 0 3 0 
3 1 2 0 2 0 3 1 3 0 3 0 4 0 3 1 
3 0 2 0 4 1 2 0 2 0 3 1 3 0 3 0 
3 1 3 0 3 0 3 0 2 1 3 0 5 0 3 1 
4 0 1 0 4 1 2 0 3 0 3 1 4 0 4 0 
3 1 2 0 3 1 2 0 4 0 4 1 3 0 2 0 
4 1 4 0 4 0 4 1 2 0 3 1 4 0 3 0 
3 1 3 0 4 1 3 0 3 0 3 1 4 0 3 1 
3 0 3 1 3 0 3 1 4 0 3 1 4 0 3 0 
4 1 3 0 4 1 3 0 5 1 4 0 5 0 2 1 
5 0 4 1 5 0 4 1 3 0 4 1 3 0 4 1 
3 0 4 1 4 1 4 0 3 1 4 0 4 1 4 0 
3 1 3 1 5 0 4 1 5 0 4 1 5 0 4 1 
4 1 4 0 4 1 3 1 4 1 5 0 3 1 4 1 
3 1 5 0 3 1 5 1 6 0 4 1 5 1 5 0 
5 1 6 0 3 1 5 1 3 1 4 1 4 1 5 1 
4 1 4 1 5 1 4 1 5 1 4 1 4 1 5 1 
4 1 5 1 4 1 5 1 7 1 4 1 5 2 6 0 
5 2 6 1 6 1 5 1 6 1 4 2 5 1 6 1 
5 1 5 2 6 1 6 1 4 3 6 1 4 2 6 2 
5 1 5 2 6 2 6 2 6 1 5 2 5 3 6 2 
5 2 5 3 6 2 7 2 8 2 7 2 6 2 9 2 
7 2 6 3 7 3 7 2 7 3 8 2 5 5 7 3 
7 4 7 4 7 4 7 4 6 5 8 4 9 4 8 5 
7 6 10 4 7 7 9 5 8 7 9 7 10 6 8 9 
11 7 10 8 9 11 10 10 13 9 11 13 14 9 13 13 
13 15 14 16 17 14 16 17 19 17 19 20 20 24 22 25 
26 18 26 28 28 53 345 922 268 MP stroke
gr

c10
DO
0 sg
 827  100 mt 
(Zero-shot Sketch based Image Retrieval) s
1177 1710 mt 
(Recall) s
 207  964 mt  -90 rotate
(Precision) s
90 rotate
%%IncludeResource: font Helvetica
/Helvetica /ISOLatin1Encoding 41.6667 FMSR

 306 1619 mt 
( ) s
2167  150 mt 
( ) s
SO
1 sg
0 239 641 0 0 -239 1511 395 4 MP
PP
-641 0 0 239 641 0 0 -239 1511 395 5 MP stroke
1.38889 w
DO
SO
2.08333 w
0 sg
1511  395 mt 2152  395 L
1511  156 mt 2152  156 L
1511  395 mt 1511  156 L
2152  395 mt 2152  156 L
1511  395 mt 2152  395 L
1511  395 mt 1511  156 L
1511  395 mt 2152  395 L
1511  156 mt 2152  156 L
1511  395 mt 1511  156 L
2152  395 mt 2152  156 L
%%IncludeResource: font Helvetica
/Helvetica /ISOLatin1Encoding 45.8333 FMSR

1690  208 mt 
(DFSR\(ZS\) - ReLU 1) s
gs 1511 156 642 240 rc
c8
138 0 1538 191 2 MP stroke
gr

c8
0 sg
1690  264 mt 
(DFSR\(ZS\) - Conv 1) s
gs 1511 156 642 240 rc
DA
c9
138 0 1538 247 2 MP stroke
SO
gr

c9
0 sg
1690  320 mt 
(Softmax\(ZS\) - ReLU 1) s
gs 1511 156 642 240 rc
DD
138 0 1538 303 2 MP stroke
SO
gr

1690  376 mt 
(Softmax\(ZS\) - Conv 1) s
gs 1511 156 642 240 rc
DO
c10
138 0 1538 359 2 MP stroke
SO
gr

c10

end %%Color Dict

eplot
%%EndObject

epage
end

showpage

%%Trailer
%%EOF
