%!PS-Adobe-3.0 EPSF-3.0
%%Creator: MATLAB, The MathWorks, Inc. Version 8.2.0.701 (R2013b). Operating System: Linux 2.6.32-279.el6.x86_64 #1 SMP Fri Jun 22 12:19:21 UTC 2012 x86_64.
%%Title: ./zeroshotsketchimagecrossmodalset5bench.eps
%%CreationDate: 04/01/2016  20:08:49
%%DocumentNeededFonts: Helvetica
%%DocumentProcessColors: Cyan Magenta Yellow Black
%%LanguageLevel: 2
%%Pages: 1
%%BoundingBox:    55   197   546   604
%%EndComments

%%BeginProlog
% MathWorks dictionary
/MathWorks 160 dict begin
% definition operators
/bdef {bind def} bind def
/ldef {load def} bind def
/xdef {exch def} bdef
/xstore {exch store} bdef
% operator abbreviations
/c  /clip ldef
/cc /concat ldef
/cp /closepath ldef
/gr /grestore ldef
/gs /gsave ldef
/mt /moveto ldef
/np /newpath ldef
/cm /currentmatrix ldef
/sm /setmatrix ldef
/rm /rmoveto ldef
/rl /rlineto ldef
/s {show newpath} bdef
/sc {setcmykcolor} bdef
/sr /setrgbcolor ldef
/sg /setgray ldef
/w /setlinewidth ldef
/j /setlinejoin ldef
/cap /setlinecap ldef
/rc {rectclip} bdef
/rf {rectfill} bdef
% page state control
/pgsv () def
/bpage {/pgsv save def} bdef
/epage {pgsv restore} bdef
/bplot /gsave ldef
/eplot {stroke grestore} bdef
% orientation switch
/portraitMode 0 def /landscapeMode 1 def /rotateMode 2 def
% coordinate system mappings
/dpi2point 0 def
% font control
/FontSize 0 def
/FMS {/FontSize xstore findfont [FontSize 0 0 FontSize neg 0 0]
  makefont setfont} bdef
/reencode {exch dup where {pop load} {pop StandardEncoding} ifelse
  exch dup 3 1 roll findfont dup length dict begin
  { 1 index /FID ne {def}{pop pop} ifelse } forall
  /Encoding exch def currentdict end definefont pop} bdef
/isroman {findfont /CharStrings get /Agrave known} bdef
/FMSR {3 1 roll 1 index dup isroman {reencode} {pop pop} ifelse
  exch FMS} bdef
/csm {1 dpi2point div -1 dpi2point div scale neg translate
 dup landscapeMode eq {pop -90 rotate}
  {rotateMode eq {90 rotate} if} ifelse} bdef
% line types: solid, dotted, dashed, dotdash
/SO { [] 0 setdash } bdef
/DO { [.5 dpi2point mul 4 dpi2point mul] 0 setdash } bdef
/DA { [6 dpi2point mul] 0 setdash } bdef
/DD { [.5 dpi2point mul 4 dpi2point mul 6 dpi2point mul 4
  dpi2point mul] 0 setdash } bdef
% macros for lines and objects
/L {lineto stroke} bdef
/MP {3 1 roll moveto 1 sub {rlineto} repeat} bdef
/AP {{rlineto} repeat} bdef
/PDlw -1 def
/W {/PDlw currentlinewidth def setlinewidth} def
/PP {closepath eofill} bdef
/DP {closepath stroke} bdef
/MR {4 -2 roll moveto dup  0 exch rlineto exch 0 rlineto
  neg 0 exch rlineto closepath} bdef
/FR {MR stroke} bdef
/PR {MR fill} bdef
/L1i {{currentfile picstr readhexstring pop} image} bdef
/tMatrix matrix def
/MakeOval {newpath tMatrix currentmatrix pop translate scale
0 0 1 0 360 arc tMatrix setmatrix} bdef
/FO {MakeOval stroke} bdef
/PO {MakeOval fill} bdef
/PD {currentlinewidth 2 div 0 360 arc fill
   PDlw -1 eq not {PDlw w /PDlw -1 def} if} def
/FA {newpath tMatrix currentmatrix pop translate scale
  0 0 1 5 -2 roll arc tMatrix setmatrix stroke} bdef
/PA {newpath tMatrix currentmatrix pop	translate 0 0 moveto scale
  0 0 1 5 -2 roll arc closepath tMatrix setmatrix fill} bdef
/FAn {newpath tMatrix currentmatrix pop translate scale
  0 0 1 5 -2 roll arcn tMatrix setmatrix stroke} bdef
/PAn {newpath tMatrix currentmatrix pop translate 0 0 moveto scale
  0 0 1 5 -2 roll arcn closepath tMatrix setmatrix fill} bdef
/vradius 0 def /hradius 0 def /lry 0 def
/lrx 0 def /uly 0 def /ulx 0 def /rad 0 def
/MRR {/vradius xdef /hradius xdef /lry xdef /lrx xdef /uly xdef
  /ulx xdef newpath tMatrix currentmatrix pop ulx hradius add uly
  vradius add translate hradius vradius scale 0 0 1 180 270 arc 
  tMatrix setmatrix lrx hradius sub uly vradius add translate
  hradius vradius scale 0 0 1 270 360 arc tMatrix setmatrix
  lrx hradius sub lry vradius sub translate hradius vradius scale
  0 0 1 0 90 arc tMatrix setmatrix ulx hradius add lry vradius sub
  translate hradius vradius scale 0 0 1 90 180 arc tMatrix setmatrix
  closepath} bdef
/FRR {MRR stroke } bdef
/PRR {MRR fill } bdef
/MlrRR {/lry xdef /lrx xdef /uly xdef /ulx xdef /rad lry uly sub 2 div def
  newpath tMatrix currentmatrix pop ulx rad add uly rad add translate
  rad rad scale 0 0 1 90 270 arc tMatrix setmatrix lrx rad sub lry rad
  sub translate rad rad scale 0 0 1 270 90 arc tMatrix setmatrix
  closepath} bdef
/FlrRR {MlrRR stroke } bdef
/PlrRR {MlrRR fill } bdef
/MtbRR {/lry xdef /lrx xdef /uly xdef /ulx xdef /rad lrx ulx sub 2 div def
  newpath tMatrix currentmatrix pop ulx rad add uly rad add translate
  rad rad scale 0 0 1 180 360 arc tMatrix setmatrix lrx rad sub lry rad
  sub translate rad rad scale 0 0 1 0 180 arc tMatrix setmatrix
  closepath} bdef
/FtbRR {MtbRR stroke } bdef
/PtbRR {MtbRR fill } bdef
/stri 6 array def /dtri 6 array def
/smat 6 array def /dmat 6 array def
/tmat1 6 array def /tmat2 6 array def /dif 3 array def
/asub {/ind2 exch def /ind1 exch def dup dup
  ind1 get exch ind2 get sub exch } bdef
/tri_to_matrix {
  2 0 asub 3 1 asub 4 0 asub 5 1 asub
  dup 0 get exch 1 get 7 -1 roll astore } bdef
/compute_transform {
  dmat dtri tri_to_matrix tmat1 invertmatrix 
  smat stri tri_to_matrix tmat2 concatmatrix } bdef
/ds {stri astore pop} bdef
/dt {dtri astore pop} bdef
/db {2 copy /cols xdef /rows xdef mul dup 3 mul string
  currentfile 
  3 index 0 eq {/ASCIIHexDecode filter}
  {/ASCII85Decode filter 3 index 2 eq {/RunLengthDecode filter} if }
  ifelse exch readstring pop
  dup 0 3 index getinterval /rbmap xdef
  dup 2 index dup getinterval /gbmap xdef
  1 index dup 2 mul exch getinterval /bbmap xdef pop pop}bdef
/it {gs np dtri aload pop moveto lineto lineto cp c
  cols rows 8 compute_transform 
  rbmap gbmap bbmap true 3 colorimage gr}bdef
/il {newpath moveto lineto stroke}bdef
currentdict end def
%%EndProlog

%%BeginSetup
MathWorks begin

0 cap

end
%%EndSetup

%%Page: 1 1
%%BeginPageSetup
%%PageBoundingBox:    55   197   546   604
MathWorks begin
bpage
%%EndPageSetup

%%BeginObject: obj1
bplot

/dpi2point 4.16667 def
portraitMode 0075 2550 csm

  156    33  2047  1696 rc
86 dict begin %Colortable dictionary
/c0 { 0.000000 0.000000 0.000000 sr} bdef
/c1 { 1.000000 1.000000 1.000000 sr} bdef
/c2 { 0.900000 0.000000 0.000000 sr} bdef
/c3 { 0.000000 0.820000 0.000000 sr} bdef
/c4 { 0.000000 0.000000 0.800000 sr} bdef
/c5 { 0.910000 0.820000 0.320000 sr} bdef
/c6 { 1.000000 0.260000 0.820000 sr} bdef
/c7 { 0.000000 0.820000 0.820000 sr} bdef
c0
1 j
1 sg
   0    0 2401 1802 rf
2.08333 w
0 1468 1860 0 0 -1468 312 1603 4 MP
PP
-1860 0 0 1468 1860 0 0 -1468 312 1603 5 MP stroke
1.38889 w
DO
SO
2.08333 w
0 sg
 312 1603 mt 2172 1603 L
 312  135 mt 2172  135 L
 312 1603 mt  312  135 L
2172 1603 mt 2172  135 L
 312 1603 mt 2172 1603 L
 312 1603 mt  312  135 L
 312 1603 mt  312 1584 L
 312  135 mt  312  153 L
%%IncludeResource: font Helvetica
/Helvetica /ISOLatin1Encoding 45.8333 FMSR

 300 1657 mt 
(0) s
 498 1603 mt  498 1584 L
 498  135 mt  498  153 L
 467 1657 mt 
(0.1) s
 684 1603 mt  684 1584 L
 684  135 mt  684  153 L
 653 1657 mt 
(0.2) s
 870 1603 mt  870 1584 L
 870  135 mt  870  153 L
 839 1657 mt 
(0.3) s
1056 1603 mt 1056 1584 L
1056  135 mt 1056  153 L
1025 1657 mt 
(0.4) s
1242 1603 mt 1242 1584 L
1242  135 mt 1242  153 L
1211 1657 mt 
(0.5) s
1428 1603 mt 1428 1584 L
1428  135 mt 1428  153 L
1397 1657 mt 
(0.6) s
1614 1603 mt 1614 1584 L
1614  135 mt 1614  153 L
1583 1657 mt 
(0.7) s
1800 1603 mt 1800 1584 L
1800  135 mt 1800  153 L
1769 1657 mt 
(0.8) s
1986 1603 mt 1986 1584 L
1986  135 mt 1986  153 L
1955 1657 mt 
(0.9) s
2172 1603 mt 2172 1584 L
2172  135 mt 2172  153 L
2160 1657 mt 
(1) s
 312 1603 mt  330 1603 L
2172 1603 mt 2153 1603 L
 275 1619 mt 
(0) s
 312 1456 mt  330 1456 L
2172 1456 mt 2153 1456 L
 237 1472 mt 
(0.1) s
 312 1309 mt  330 1309 L
2172 1309 mt 2153 1309 L
 237 1325 mt 
(0.2) s
 312 1162 mt  330 1162 L
2172 1162 mt 2153 1162 L
 237 1178 mt 
(0.3) s
 312 1015 mt  330 1015 L
2172 1015 mt 2153 1015 L
 237 1031 mt 
(0.4) s
 312  869 mt  330  869 L
2172  869 mt 2153  869 L
 237  885 mt 
(0.5) s
 312  722 mt  330  722 L
2172  722 mt 2153  722 L
 237  738 mt 
(0.6) s
 312  575 mt  330  575 L
2172  575 mt 2153  575 L
 237  591 mt 
(0.7) s
 312  428 mt  330  428 L
2172  428 mt 2153  428 L
 237  444 mt 
(0.8) s
 312  281 mt  330  281 L
2172  281 mt 2153  281 L
 237  297 mt 
(0.9) s
 312  135 mt  330  135 L
2172  135 mt 2153  135 L
 275  151 mt 
(1) s
 312 1603 mt 2172 1603 L
 312  135 mt 2172  135 L
 312 1603 mt  312  135 L
2172 1603 mt 2172  135 L
gs 312 135 1861 1469 rc
/c8 { 1.000000 0.000000 0.000000 sr} bdef
c8
2 0 1 0 1 0 1 0 1 0 1 1 2 0 1 0 
2 0 1 0 2 0 1 0 1 0 1 1 1 0 2 0 
1 0 1 0 1 0 2 0 1 1 1 0 1 0 1 0 
1 0 1 1 1 0 2 0 1 0 2 0 2 0 1 1 
1 0 2 0 1 0 1 0 1 0 -1 0 3 1 1 0 
1 0 1 0 1 0 1 1 1 0 2 0 1 0 1 0 
1 0 1 0 1 1 1 0 1 0 1 0 1 0 2 0 
1 1 1 0 1 0 1 0 1 0 2 0 1 1 2 0 
2 1 1 0 1 0 1 0 1 0 1 0 1 1 2 0 
1 0 2 0 2 1 1 0 1 0 1 0 1 0 1 0 
1 1 2 0 1 0 2 0 2 0 1 0 1 0 1 1 
1 0 1 0 1 0 1 0 2 1 1 0 1 0 2 0 
1 0 1 0 1 1 1 0 2 0 2 0 1 0 1 0 
2 1 1 0 1 0 2 0 1 0 1 1 2 0 3 0 
1 0 2 0 2 0 0 1 2 0 2 0 1 0 2 0 
1 1 2 0 2 0 2 0 2 0 1 1 3 0 1 0 
2 0 1 0 2 1 1 0 2 0 1 0 2 0 2 1 
2 0 2 0 1 0 2 0 2 0 2 1 1 0 2 0 
1 0 3 1 2 0 2 0 2 0 2 0 1 0 2 1 
2 0 2 0 1 0 2 1 2 0 1 0 2 0 2 0 
2 1 2 0 3 0 2 0 3 0 1 1 1 0 2 0 
1 0 2 1 1 0 2 0 1 0 2 1 1 0 2 0 
2 0 3 1 2 0 2 0 2 0 2 0 2 1 3 0 
1 0 2 0 2 1 1 0 2 0 2 1 1 0 2 0 
2 0 3 1 2 0 3 0 1 0 1 1 3 0 2 0 
1 0 3 1 2 0 1 0 2 1 2 0 2 0 2 0 
1 1 2 0 3 0 3 1 1 0 2 0 2 0 3 1 
1 0 2 0 3 1 1 0 1 0 2 1 2 0 3 0 
3 1 2 0 2 0 2 1 1 0 2 0 2 1 4 0 
1 0 3 0 2 1 3 0 1 0 2 1 2 0 2 1 
2 0 3 0 1 1 3 0 3 0 2 1 2 0 1 1 
3 0 3 0 3 0 2 1 3 0 2 1 2 0 2 0 
2 1 2 0 2 1 3 0 2 0 4 1 3 0 2 1 
3 0 3 0 3 1 3 0 3 0 2 1 2 0 2 1 
2 0 3 1 1 0 3 1 2 0 2 1 2 0 3 1 
4 0 2 0 3 1 2 0 3 1 3 0 2 1 3 0 
3 1 4 0 3 1 3 0 2 1 2 0 3 1 3 0 
3 1 1 0 3 1 1643 1449 300 MP stroke
5 0 2 1 3 1 3 0 4 0 3 1 2 1 3 0 
2 1 4 0 4 1 3 0 3 1 5 0 3 1 3 1 
3 0 3 1 2 1 3 0 3 1 3 1 3 0 3 1 
4 1 4 0 3 1 4 0 4 1 3 1 3 0 4 1 
3 1 3 1 4 0 3 1 5 0 5 1 4 1 1 1 
6 0 4 1 4 1 3 1 5 0 5 1 4 1 4 0 
5 1 4 1 4 1 5 0 5 1 4 1 3 1 5 0 
5 1 3 1 6 1 3 1 3 1 3 1 3 1 4 1 
4 1 4 1 5 1 5 1 5 1 4 1 4 1 5 1 
4 2 4 1 3 1 4 1 4 2 5 1 6 1 5 1 
6 1 5 1 4 1 4 2 6 1 4 1 4 2 5 1 
5 2 5 1 4 2 6 1 3 2 5 2 4 1 4 2 
6 2 5 2 3 2 6 1 3 3 6 1 6 2 6 2 
6 2 6 1 6 2 7 2 6 2 5 2 6 3 6 2 
6 2 6 2 6 3 7 2 8 2 5 3 8 1 7 3 
7 3 8 2 6 3 7 3 9 2 6 3 6 4 8 3 
6 3 7 4 9 3 7 4 7 3 7 5 10 3 8 4 
9 3 9 5 7 5 8 5 9 4 11 4 9 5 10 5 
7 7 9 6 11 6 12 4 10 7 10 8 9 8 11 7 
11 8 11 9 11 10 12 9 16 7 15 8 14 10 18 7 
15 11 17 10 18 10 19 9 19 12 19 13 20 13 21 15 
21 18 25 12 23 21 27 16 27 17 26 34 32 22 33 25 
36 9 349 839 178 MP stroke
DA
/c9 { 1.000000 0.000000 1.000000 sr} bdef
c9
1 0 1 0 1 1 1 0 1 1 1 0 1 1 1 0 
1 1 1 0 1 0 1 1 1 0 1 1 1 0 1 1 
1 0 1 0 1 1 1 0 1 1 1 0 1 0 1 0 
1 1 1 0 1 1 1 0 1 1 1 0 1 0 1 0 
1 1 1 0 1 0 1 1 1 0 1 0 1 0 1 1 
1 0 1 1 1 0 1 0 1 0 1 1 1 0 1 0 
1 1 1 0 1 0 1 0 1 1 1 0 1 1 2 0 
1 1 1 0 1 1 1 0 1 0 1 0 1 1 1 0 
1 0 1 1 2 0 1 0 1 1 1 0 1 0 1 1 
1 0 1 0 1 0 1 1 1 0 1 0 1 0 1 1 
1 0 1 0 2 0 1 1 1 0 1 0 1 1 1 0 
1 0 1 0 1 1 1 0 1 0 1 0 1 1 1 0 
2 0 1 1 2 0 1 0 1 1 1 0 1 0 1 0 
1 1 1 0 1 0 1 1 1 0 1 1 1 0 1 0 
1 0 1 1 1 0 1 0 2 1 2 0 1 1 1 0 
1 0 1 1 1 0 2 0 1 1 1 0 2 0 2 1 
2 0 1 0 1 1 1 0 1 0 1 1 2 0 1 0 
1 1 2 0 1 0 1 1 2 0 1 0 1 1 2 0 
2 0 1 1 2 0 1 1 1 0 2 0 1 1 1 0 
1 0 2 1 1 0 1 0 2 1 2 0 1 1 2 0 
2 0 2 1 1 0 2 0 2 1 3 0 2 0 1 1 
2 0 2 1 1 0 2 1 2 0 1 0 1 1 1 0 
2 1 1 0 2 1 2 0 1 0 2 1 2 0 1 1 
2 0 1 1 2 0 1 1 2 0 1 1 1 0 2 1 
2 0 3 0 2 1 2 0 2 1 1 0 3 1 1 0 
2 1 3 0 2 1 1 0 2 1 2 0 2 1 2 0 
2 1 1 1 2 0 1 1 2 0 2 1 2 0 2 1 
3 0 1 1 2 1 1 0 2 1 2 1 3 0 1 1 
2 0 2 1 2 1 2 0 2 1 1 1 4 0 2 1 
3 0 1 1 2 1 1 1 2 0 2 1 2 1 2 0 
4 1 2 1 2 0 2 1 2 1 3 1 2 0 3 1 
3 1 3 0 2 1 3 1 1 1 2 1 3 0 2 1 
3 1 3 1 3 0 3 1 2 1 2 1 2 1 2 1 
2 1 2 1 2 1 2 1 2 1 3 1 2 1 4 1 
2 1 3 1 3 1 2 1 3 1 2 1 3 1 3 1 
3 1 3 1 4 1 2 1 3 1 3 1 3 1 2 2 
3 1 3 1 4 1 3 1 3 1 3 2 3 1 3 1 
4 2 3 1 3 1 1688 1373 300 MP stroke
3 1 4 2 3 1 2 2 4 1 4 1 5 2 4 1 
4 1 3 2 3 2 4 1 3 2 3 1 4 2 3 2 
3 2 3 1 3 2 6 2 5 1 3 2 3 2 4 2 
4 2 3 2 4 2 4 2 5 2 4 2 4 2 2 3 
5 2 5 2 5 2 4 2 4 3 4 2 5 3 6 2 
4 2 6 3 4 2 5 3 5 3 6 2 4 4 5 2 
4 3 7 3 4 3 5 4 6 3 4 3 6 4 5 3 
5 4 6 4 6 3 5 4 6 5 6 4 4 4 6 5 
6 4 6 5 7 4 6 5 7 5 7 5 8 4 7 6 
7 5 8 6 8 5 9 6 8 5 7 7 9 7 9 6 
9 6 9 8 12 5 7 9 9 9 12 7 12 7 13 7 
10 9 9 11 12 10 11 10 12 11 13 10 15 11 14 11 
16 11 13 14 13 15 17 13 18 13 21 12 19 15 19 16 
23 14 21 17 26 14 26 16 26 16 30 14 29 18 31 19 
33 14 36 15 35 19 37 20 43 6 41 12 43 13 43 26 
45 22 45 62 363 548 123 MP stroke
DD
0 sg
4 0 4 0 4 0 1 0 6 0 4 0 3 0 1 0 
7 0 4 0 2 0 6 0 2 0 3 0 3 0 4 0 
3 0 3 0 3 0 2 0 4 0 6 0 7 0 2 0 
3 0 7 0 3 0 1 0 8 0 3 0 1 0 1 0 
3 0 5 0 5 0 6 0 3 0 4 0 6 0 3 0 
3 0 2 0 4 0 6 0 4 0 7 0 5 0 3 0 
1 0 2 0 4 0 1 0 1 0 1 0 2 0 4 0 
6 0 10 0 5 0 4 0 3 0 5 0 3 0 2 0 
2 0 2 0 4 0 4 0 4 0 6 0 3 0 6 0 
4 0 3 0 4 0 3 0 7 0 5 0 3 0 6 0 
4 0 2 0 2 0 2 0 5 0 3 0 3 0 4 0 
3 0 1 0 1 1 3 0 4 0 3 0 3 0 4 0 
4 0 4 0 6 0 7 -1 5 0 7 0 6 0 4 0 
2 0 3 0 4 0 2 0 2 0 5 0 7 0 6 0 
3 0 1 0 3 0 3 0 5 0 2 0 2 0 2 1 
6 -1 5 0 4 0 2 0 4 0 3 0 2 1 2 0 
2 0 3 0 3 0 3 0 3 0 3 0 4 0 5 0 
5 0 5 0 5 0 5 0 4 0 6 0 9 -1 4 0 
4 0 4 0 3 0 5 0 6 0 3 0 1 0 3 0 
2 0 6 0 4 0 3 0 2 0 2 0 3 1 2 0 
4 0 4 0 4 0 2 0 3 0 4 0 3 0 3 0 
2 0 3 0 3 0 12 0 4 0 5 0 5 -1 1 1 
2 0 1 0 4 0 3 0 2 0 2 0 2 0 4 0 
6 0 4 0 4 0 4 0 3 0 4 0 3 0 3 0 
3 0 4 0 3 0 4 0 4 0 4 0 2 0 4 0 
4 0 4 0 3 1 4 -1 3 1 5 -1 6 0 4 0 
4 0 3 0 3 0 5 0 5 0 6 0 3 0 2 0 
3 0 4 0 3 0 2 1 4 0 4 0 5 -1 3 1 
3 0 4 0 4 0 3 0 6 -1 6 0 3 0 3 0 
2 1 5 -1 4 0 7 0 4 0 6 0 5 0 4 0 
5 0 3 0 6 0 5 0 2 0 3 0 3 0 3 0 
2 0 3 0 1 0 2 1 2 0 4 0 3 0 5 0 
5 0 6 -1 6 0 4 0 5 0 2 0 2 0 2 1 
4 0 4 0 4 0 4 0 2 0 4 0 4 0 3 0 
3 0 3 0 4 0 4 0 5 0 4 0 6 0 7 -1 
5 0 4 0 5 0 2 0 4 0 7 0 6 0 6 -1 
4 0 5 0 4 0 3 0 2 0 4 0 7 0 4 0 
4 0 3 0 2 0 1044 1525 300 MP stroke
2 1 3 0 2 0 4 0 2 0 2 0 4 0 5 0 
6 0 3 0 6 0 4 0 4 0 4 0 4 0 5 -1 
4 0 4 0 3 1 4 -1 4 0 4 0 7 0 2 0 
4 0 4 0 2 0 4 0 2 1 3 0 4 0 3 0 
5 0 5 0 2 0 2 0 3 0 1 0 3 1 4 0 
2 0 4 0 3 0 4 0 4 0 2 0 3 0 3 0 
2 1 3 0 4 0 4 0 6 0 5 -1 5 0 6 0 
2 0 5 0 3 0 4 0 3 0 2 1 3 0 4 0 
4 0 7 -1 5 0 5 0 3 0 4 0 3 0 3 0 
4 0 5 0 6 0 6 -1 4 0 3 0 9 -1 7 0 
1 0 1 1 2 0 5 0 3 0 4 0 5 0 3 0 
3 0 3 0 8 0 2 0 4 0 6 -1 5 0 3 0 
4 0 4 0 3 0 3 1 1 1 2 0 5 0 3 0 
3 1 3 0 5 -1 4 1 5 -1 6 0 3 0 3 0 
3 0 2 1 2 1 1 0 3 1 3 0 4 0 5 -1 
6 0 6 -1 7 -1 4 0 8 -1 5 0 4 0 3 0 
1 1 2 0 2 1 4 0 2 1 4 0 3 0 9 -2 
5 0 6 -1 3 0 5 0 2 1 8 -2 1 1 1 1 
6 -1 2 1 1 2 3 0 6 -1 4 0 4 0 3 0 
4 0 4 0 3 1 5 -1 3 0 5 0 6 -1 3 1 
1 1 4 0 4 0 10 -4 4 0 4 0 3 0 2 1 
2 2 6 -1 2 1 3 1 2 2 4 1 4 -1 9 -6 
0 5 6 -2 5 -3 3 2 4 -1 2 6 7 -7 3 0 
4 0 4 0 4 0 0 17 7 -13 4 -4 4 0 315 1525 192 MP stroke
DO
/c10 { 0.000000 0.000000 1.000000 sr} bdef
c10
4 0 4 0 4 0 4 0 3 0 4 0 4 0 4 0 
3 0 4 0 4 0 4 0 3 0 4 0 4 0 4 0 
4 0 3 0 4 0 4 0 4 0 3 0 4 0 4 0 
3 0 4 0 4 0 4 0 3 0 5 0 3 0 4 0 
4 0 4 0 3 0 4 0 4 0 4 0 3 0 4 0 
4 0 3 0 4 0 4 0 4 0 4 0 3 0 4 0 
4 0 4 0 4 0 3 0 4 0 4 0 4 0 3 0 
4 0 4 0 4 0 3 0 4 0 4 0 4 0 3 0 
4 0 4 0 4 0 4 0 3 0 4 0 4 0 4 0 
3 0 4 0 4 0 4 0 4 0 3 0 4 0 4 0 
3 0 4 0 4 0 4 0 4 0 3 0 7 0 1 0 
4 0 3 0 4 0 4 0 4 0 3 0 4 0 4 0 
4 0 3 0 4 0 3 0 5 0 4 0 4 0 3 0 
4 0 4 0 3 0 4 0 4 0 4 0 3 0 4 0 
4 0 4 0 3 0 4 0 4 0 4 0 4 0 3 0 
4 0 4 0 4 0 4 0 5 0 2 0 4 0 3 0 
4 0 4 0 4 0 4 0 3 0 4 0 3 0 5 0 
3 0 4 0 4 0 4 0 2 0 5 0 4 0 4 0 
3 0 4 0 4 0 6 0 2 0 3 0 4 0 4 0 
5 0 3 0 4 0 4 0 3 0 3 0 4 0 4 0 
4 0 3 0 4 0 4 0 3 0 5 0 3 0 4 0 
4 0 4 0 3 0 4 0 4 0 3 0 7 0 3 0 
2 0 3 0 5 0 3 0 4 0 4 0 4 0 2 0 
5 0 4 0 4 0 3 0 4 0 4 0 4 0 3 0 
4 0 4 0 4 0 3 0 4 0 3 0 5 0 4 0 
3 0 4 0 4 0 3 0 3 0 4 0 4 0 6 0 
4 0 3 0 3 0 4 0 4 0 3 0 4 0 4 0 
1 0 6 0 4 0 4 0 3 0 5 0 3 0 4 0 
4 0 4 0 4 0 3 0 4 0 3 0 4 0 5 0 
3 0 4 0 3 0 4 0 3 0 7 0 2 0 3 0 
4 0 4 0 4 0 3 0 4 0 6 0 3 0 2 0 
4 0 4 0 3 0 6 0 3 0 3 0 4 0 4 0 
3 0 4 0 4 0 4 0 2 0 5 0 4 0 4 0 
3 0 4 0 4 0 4 0 1 0 5 0 5 0 4 0 
3 0 4 0 4 0 5 0 4 0 3 0 3 0 1 0 
7 0 6 0 3 0 4 0 2 0 3 0 4 0 3 0 
4 0 3 0 6 0 4 0 3 0 1 0 4 0 6 0 
4 0 3 0 4 0 1046 1525 300 MP stroke
5 0 2 0 5 0 3 0 3 0 5 0 4 0 1 0 
5 0 5 0 2 0 5 0 4 0 4 0 6 -1 2 1 
4 0 5 0 2 0 3 0 5 0 4 0 7 -1 3 0 
3 0 2 1 3 0 5 0 2 0 4 0 2 0 6 0 
4 0 4 0 2 0 4 0 4 0 5 0 5 0 3 0 
2 0 2 0 5 0 5 0 4 0 3 0 4 0 1 0 
5 0 4 0 2 0 4 0 6 0 4 0 2 0 6 0 
4 0 1 0 5 0 6 0 4 0 2 0 4 0 3 0 
2 0 3 0 4 0 5 0 3 0 6 0 3 0 6 0 
4 0 3 0 1 0 4 0 6 0 4 0 3 0 4 0 
5 0 5 -1 4 0 1 1 3 0 3 0 4 0 5 0 
4 0 4 0 7 -1 1 1 2 0 5 0 5 0 2 0 
4 0 3 0 4 0 2 0 3 1 4 0 5 -1 4 0 
4 0 3 0 5 0 5 0 4 0 4 0 1 0 6 0 
3 0 6 -1 3 1 3 0 4 0 3 0 7 -1 2 0 
3 1 1 0 5 0 5 0 6 -1 2 1 2 0 2 1 
7 -1 5 -1 5 0 5 0 3 0 1 1 3 0 4 0 
3 0 5 0 3 0 2 1 4 0 3 0 5 0 3 0 
4 0 4 0 2 0 5 0 4 0 4 0 3 0 3 1 
4 -1 5 0 5 -1 3 1 5 -1 4 0 3 1 3 0 
5 -1 4 0 5 -1 4 0 3 0 3 1 4 0 3 0 
4 0 3 1 3 1 3 0 5 0 5 -1 4 -1 8 -4 
3 0 3 1 2 2 3 1 3 0 5 -1 4 0 4 -1 
3 1 1 6 4 0 4 1 4 -1 4 2 2 10 4 6 
4 8 6 -10 316 1504 195 MP stroke
gr

c10
DO
0 sg
 827  100 mt 
(Zero-shot Sketch based Image Retrieval) s
1177 1710 mt 
(Recall) s
 207  964 mt  -90 rotate
(Precision) s
90 rotate
%%IncludeResource: font Helvetica
/Helvetica /ISOLatin1Encoding 41.6667 FMSR

 306 1619 mt 
( ) s
2167  150 mt 
( ) s
SO
1 sg
0 239 598 0 0 -239 1554 395 4 MP
PP
-598 0 0 239 598 0 0 -239 1554 395 5 MP stroke
1.38889 w
DO
SO
2.08333 w
0 sg
1554  395 mt 2152  395 L
1554  156 mt 2152  156 L
1554  395 mt 1554  156 L
2152  395 mt 2152  156 L
1554  395 mt 2152  395 L
1554  395 mt 1554  156 L
1554  395 mt 2152  395 L
1554  156 mt 2152  156 L
1554  395 mt 1554  156 L
2152  395 mt 2152  156 L
%%IncludeResource: font Helvetica
/Helvetica /ISOLatin1Encoding 45.8333 FMSR

1741  208 mt 
(DFSR\(ZS\) - Conv 1) s
gs 1554 156 599 240 rc
c8
143 0 1582 191 2 MP stroke
gr

c8
0 sg
1741  264 mt 
(DFSR\(ZS\) - ReLU 1) s
gs 1554 156 599 240 rc
DA
c9
143 0 1582 247 2 MP stroke
SO
gr

c9
0 sg
1741  320 mt 
(DFSR\(ZS\) - Conv 2) s
gs 1554 156 599 240 rc
DD
143 0 1582 303 2 MP stroke
SO
gr

1741  376 mt 
(DFSR\(ZS\) - ReLU 2) s
gs 1554 156 599 240 rc
DO
c10
143 0 1582 359 2 MP stroke
SO
gr

c10

end %%Color Dict

eplot
%%EndObject

epage
end

showpage

%%Trailer
%%EOF
